[1;33mCommentaires      :[0m  /////////////////////////////////////////////
[1;33mCommentaires      :[0m  // compilation: c++ -o pgcd pgcd.cc
[1;33mCommentaires      :[0m  // execution: ./pgcd
[1;33mCommentaires      :[0m  /////////////////////////////////////////////
[35mOperator       :[0m  *
[34mIdentificateur :[0m  Coucou
[34mIdentificateur :[0m  include
[35mOperator       :[0m  <
[34mIdentificateur :[0m  iostream
[35mOperator       :[0m  >
[31mKeyword :[0m         using
[31mKeyword :[0m         namespace
[34mIdentificateur :[0m  std
[36mSeparator      :[0m  ;
[31mKeyword :[0m         int
[34mIdentificateur :[0m  main
[36mSeparator      :[0m  (
[31mKeyword :[0m         int
[34mIdentificateur :[0m  argn
[36mSeparator      :[0m  ,
[31mKeyword :[0m         char
[35mOperator       :[0m  *
[35mOperator       :[0m  *
[34mIdentificateur :[0m  argv
[36mSeparator      :[0m  )
[36mSeparator      :[0m  {
[31mKeyword :[0m         int
[34mIdentificateur :[0m  a
[36mSeparator      :[0m  ;
[31mKeyword :[0m         int
[34mIdentificateur :[0m  b
[36mSeparator      :[0m  ;
[34mIdentificateur :[0m  std
[36mSeparator      :[0m  :
[36mSeparator      :[0m  :
[34mIdentificateur :[0m  cout
[35mOperator       :[0m  <<
[1;33mString         :[0m  "Entrer a: "
[36mSeparator      :[0m  ;
[34mIdentificateur :[0m  std
[36mSeparator      :[0m  :
[36mSeparator      :[0m  :
[34mIdentificateur :[0m  cin
[35mOperator       :[0m  >>
[34mIdentificateur :[0m  a
[36mSeparator      :[0m  ;
[34mIdentificateur :[0m  std
[36mSeparator      :[0m  :
[36mSeparator      :[0m  :
[34mIdentificateur :[0m  cout
[35mOperator       :[0m  <<
[1;33mString         :[0m  "Entrer b: "
[36mSeparator      :[0m  ;
[34mIdentificateur :[0m  std
[36mSeparator      :[0m  :
[36mSeparator      :[0m  :
[34mIdentificateur :[0m  cin
[35mOperator       :[0m  >>
[34mIdentificateur :[0m  b
[36mSeparator      :[0m  ;
[31mKeyword :[0m         while
[36mSeparator      :[0m  (
[31mKeyword :[0m         true
[36mSeparator      :[0m  )
[36mSeparator      :[0m  {
[31mKeyword :[0m         if
[36mSeparator      :[0m  (
[34mIdentificateur :[0m  b
[35mOperator       :[0m  >
[34mIdentificateur :[0m  a
[36mSeparator      :[0m  )
[36mSeparator      :[0m  {
[34mIdentificateur :[0m  b
[35mOperator       :[0m  =
[34mIdentificateur :[0m  b
[35mOperator       :[0m  %
[34mIdentificateur :[0m  a
[36mSeparator      :[0m  ;
[31mKeyword :[0m         if
[36mSeparator      :[0m  (
[34mIdentificateur :[0m  b
[35mOperator       :[0m  ==
[32mNombre         :[0m  0
[36mSeparator      :[0m  )
[31mKeyword :[0m         break
[36mSeparator      :[0m  ;
[36mSeparator      :[0m  }
[31mKeyword :[0m         else
[36mSeparator      :[0m  {
[34mIdentificateur :[0m  a
[35mOperator       :[0m  =
[34mIdentificateur :[0m  a
[35mOperator       :[0m  %
[34mIdentificateur :[0m  b
[36mSeparator      :[0m  ;
[31mKeyword :[0m         if
[36mSeparator      :[0m  (
[34mIdentificateur :[0m  a
[35mOperator       :[0m  ==
[32mNombre         :[0m  0
[36mSeparator      :[0m  )
[31mKeyword :[0m         break
[36mSeparator      :[0m  ;
[36mSeparator      :[0m  }
[36mSeparator      :[0m  }
[34mIdentificateur :[0m  std
[36mSeparator      :[0m  :
[36mSeparator      :[0m  :
[34mIdentificateur :[0m  cout
[35mOperator       :[0m  <<
[1;33mString         :[0m  "pgcd: "
[36mSeparator      :[0m  ;
[31mKeyword :[0m         if
[36mSeparator      :[0m  (
[34mIdentificateur :[0m  a
[35mOperator       :[0m  ==
[32mNombre         :[0m  0
[36mSeparator      :[0m  )
[34mIdentificateur :[0m  std
[36mSeparator      :[0m  :
[36mSeparator      :[0m  :
[34mIdentificateur :[0m  cout
[35mOperator       :[0m  <<
[34mIdentificateur :[0m  b
[35mOperator       :[0m  <<
[34mIdentificateur :[0m  std
[36mSeparator      :[0m  :
[36mSeparator      :[0m  :
[34mIdentificateur :[0m  endl
[36mSeparator      :[0m  ;
[31mKeyword :[0m         else
[34mIdentificateur :[0m  std
[36mSeparator      :[0m  :
[36mSeparator      :[0m  :
[34mIdentificateur :[0m  cout
[35mOperator       :[0m  <<
[34mIdentificateur :[0m  a
[35mOperator       :[0m  <<
[34mIdentificateur :[0m  std
[36mSeparator      :[0m  :
[36mSeparator      :[0m  :
[34mIdentificateur :[0m  endl
[36mSeparator      :[0m  ;
[31mKeyword :[0m         float
[34mIdentificateur :[0m  coucou
[35mOperator       :[0m  =
[33mFlottant       :[0m  -42.26e-33
[36mSeparator      :[0m  ;
[36mSeparator      :[0m  }
Nombre de lignes        : 37
Nombre de mot clef      : 18
Nombre d'identificateur : 43
